{
  "name": "Patram.com",
  "short_name": "Patram",
  "start_url": "https://ordertacodecasa.com",
  "display": "standalone",
  "background_color": "#fff",
  "theme_color": "#fff",
  "description": "https://ordertacodecasa.com",
  "gcm_sender_id": "482941778795",
  "gcm_sender_id_comment": "Do not change the GCM Sender ID",
  "icons": [
    {
      "src": "/Images/favicon.ico",
      "sizes": "48x48",
      "type": "image/png"
    },
    {
      "src": "/Images/favicon.ico",
      "sizes": "72x72",
      "type": "image/png"
    },
    {
      "src": "/Images/favicon.ico",
      "sizes": "96x96",
      "type": "image/png"
    },
    {
      "src": "/Images/favicon.ico",
      "sizes": "144x144",
      "type": "image/png"
    },
    {
      "src": "/Images/favicon.ico",
      "sizes": "168x168",
      "type": "image/png"
    },
    {
      "src": "/Images/favicon.ico",
      "sizes": "192x192",
      "type": "image/png"
    },
    {
      "src": "/Images/favicon.ico",
      "sizes": "512x512",
      "type": "image/png"
    }
  ]
}
